 FACULTY                   
------------------         
Washington Mary ,121 Main St,Mankato, MN 56001,477-38-9453
,,ENG,$2172.42                          
 STUDENT EMPLOYEES        
--------------------------
Smith Emma             ,2043 Andrews Dr,N Mankato, MN 56003,56003
,,CIS,277.5
                            
 ALL EMPLOYEES              
 -------------------------  
Smith Emma ,345-45-8954
Washington Mary ,477-38-9453
